{
    "ko": {
        "reports_text": "Lobotomy Corporation 의 분기당 보고서와 보도자료 입니다.",
        "py_reports_dl_name":"f\"{int(datetime.datetime.now().strftime('%Y')) + 300}년 {int(int(datetime.datetime.now().strftime('%m'))/4)+1}분기 보고서\"",
        "py_reports_name":"f\"{int(int(datetime.datetime.now().strftime('%m'))/4)+1}분기\""
    },
    "en": {
        "reports_text": "Lobotomy Corporation has published its result and announcements.",
        "py_reports_dl_name":"f\"{int(datetime.datetime.now().strftime('%Y')) + 300} Q{int(int(datetime.datetime.now().strftime('%m'))/4)+1} report and press release\"",
        "py_reports_name":"f\"Q{int(int(datetime.datetime.now().strftime('%m'))/4)+1}\""
    }
}